<?xml version="1.0" standalone="no"?>
<!DOCTYPE svg PUBLIC "-//W3C//DTD SVG 20010904//EN"
 "http://www.w3.org/TR/2001/REC-SVG-20010904/DTD/svg10.dtd">
<svg version="1.0" xmlns="http://www.w3.org/2000/svg"
 width="174.000000pt" height="87.000000pt" viewBox="0 0 174.000000 87.000000"
 preserveAspectRatio="xMidYMid meet">
<metadata>
Created by potrace 1.16, written by Peter Selinger 2001-2019
</metadata>
<g transform="translate(0.000000,87.000000) scale(0.100000,-0.100000)"
fill="#000000" stroke="none">
<path d="M156 862 c-2 -4 4 -8 14 -8 10 0 16 4 14 8 -3 4 -9 8 -14 8 -5 0 -11
-4 -14 -8z"/>
<path d="M276 862 c-2 -4 4 -8 14 -8 10 0 16 4 14 8 -3 4 -9 8 -14 8 -5 0 -11
-4 -14 -8z"/>
<path d="M396 862 c-2 -4 4 -8 14 -8 10 0 16 4 14 8 -3 4 -9 8 -14 8 -5 0 -11
-4 -14 -8z"/>
<path d="M516 862 c-2 -4 4 -8 14 -8 10 0 16 4 14 8 -3 4 -9 8 -14 8 -5 0 -11
-4 -14 -8z"/>
<path d="M636 862 c-2 -4 4 -8 14 -8 10 0 16 4 14 8 -3 4 -9 8 -14 8 -5 0 -11
-4 -14 -8z"/>
<path d="M756 862 c-2 -4 4 -8 14 -8 10 0 16 4 14 8 -3 4 -9 8 -14 8 -5 0 -11
-4 -14 -8z"/>
<path d="M876 862 c-2 -4 4 -8 14 -8 10 0 16 4 14 8 -3 4 -9 8 -14 8 -5 0 -11
-4 -14 -8z"/>
<path d="M996 862 c-2 -4 4 -8 14 -8 10 0 16 4 14 8 -3 4 -9 8 -14 8 -5 0 -11
-4 -14 -8z"/>
<path d="M1116 862 c-2 -4 4 -8 14 -8 10 0 16 4 14 8 -3 4 -9 8 -14 8 -5 0
-11 -4 -14 -8z"/>
<path d="M1236 862 c-2 -4 4 -8 14 -8 10 0 16 4 14 8 -3 4 -9 8 -14 8 -5 0
-11 -4 -14 -8z"/>
<path d="M1356 862 c-2 -4 4 -8 14 -8 10 0 16 4 14 8 -3 4 -9 8 -14 8 -5 0
-11 -4 -14 -8z"/>
<path d="M1476 862 c-2 -4 4 -8 14 -8 10 0 16 4 14 8 -3 4 -9 8 -14 8 -5 0
-11 -4 -14 -8z"/>
<path d="M1596 862 c-2 -4 4 -8 14 -8 10 0 16 4 14 8 -3 4 -9 8 -14 8 -5 0
-11 -4 -14 -8z"/>
<path d="M1715 860 c-3 -6 1 -7 9 -4 18 7 21 14 7 14 -6 0 -13 -4 -16 -10z"/>
<path d="M280 751 c-130 -29 -188 -88 -171 -173 5 -27 15 -37 56 -58 57 -28
120 -29 187 -3 56 21 71 35 93 83 21 47 29 49 51 15 15 -24 15 -28 -3 -72 -15
-38 -29 -52 -73 -77 -51 -29 -62 -31 -152 -31 l-97 1 5 -69 c3 -45 1 -74 -7
-83 -6 -8 -8 -14 -3 -14 5 0 7 -23 5 -51 -2 -36 -8 -53 -22 -62 -21 -13 -24
-28 -8 -44 8 -8 22 -6 52 7 40 18 174 40 337 56 74 8 225 9 570 5 179 -2 196
-1 385 19 142 15 155 18 155 35 0 23 -16 26 -82 16 -151 -24 -372 -37 -513
-30 -209 10 -499 0 -659 -22 -82 -11 -155 -18 -163 -15 -12 5 -13 17 -7 59 4
28 8 75 9 102 l1 50 55 1 c106 2 204 52 244 125 14 26 25 58 25 71 0 41 -94
147 -148 169 -28 11 -28 11 -122 -10z m12 -50 c2 -6 20 -5 45 2 37 9 45 9 63
-8 25 -22 25 -50 2 -93 -13 -26 -30 -38 -72 -52 -70 -24 -88 -24 -144 0 -55
23 -59 46 -20 97 34 45 116 80 126 54z"/>
<path d="M4 749 c-3 -6 -2 -15 3 -20 5 -5 9 -1 9 11 0 23 -2 24 -12 9z"/>
<path d="M1429 655 c-3 -2 -82 -9 -175 -15 -168 -10 -253 -24 -266 -44 -4 -6
-33 -9 -65 -8 -57 2 -163 -21 -163 -36 0 -4 -13 -15 -29 -25 -40 -23 -73 -79
-66 -109 23 -88 136 -127 203 -70 56 46 52 142 -5 173 -35 19 -9 30 60 27 37
-2 63 -8 71 -18 20 -22 40 -89 40 -135 1 -33 4 -40 21 -40 17 0 21 9 26 55 5
46 2 62 -20 103 -16 29 -21 51 -15 56 12 12 124 31 186 31 43 0 48 -3 54 -26
4 -14 4 -78 1 -143 -6 -117 -1 -147 24 -139 14 5 17 43 20 241 1 49 4 67 14
67 8 0 37 5 65 11 38 8 50 15 48 27 -3 16 -20 26 -29 17z m-579 -179 c23 -22
25 -47 9 -79 -24 -45 -66 -49 -116 -11 -40 30 -42 54 -7 89 49 49 66 49 114 1z"/>
<path d="M4 629 c-3 -6 -2 -15 3 -20 5 -5 9 -1 9 11 0 23 -2 24 -12 9z"/>
<path d="M4 509 c-3 -6 -2 -15 3 -20 5 -5 9 -1 9 11 0 23 -2 24 -12 9z"/>
<path d="M4 389 c-3 -6 -2 -15 3 -20 5 -5 9 -1 9 11 0 23 -2 24 -12 9z"/>
<path d="M1560 356 c0 -2 7 -7 16 -10 8 -3 12 -2 9 4 -6 10 -25 14 -25 6z"/>
<path d="M4 269 c-3 -6 -2 -15 3 -20 5 -5 9 -1 9 11 0 23 -2 24 -12 9z"/>
<path d="M4 149 c-3 -6 -2 -15 3 -20 5 -5 9 -1 9 11 0 23 -2 24 -12 9z"/>
<path d="M5 29 c-4 -6 -5 -12 -2 -15 2 -3 7 2 10 11 7 17 1 20 -8 4z"/>
</g>
</svg>
