<?xml version="1.0" standalone="no"?>
<!DOCTYPE svg PUBLIC "-//W3C//DTD SVG 20010904//EN"
 "http://www.w3.org/TR/2001/REC-SVG-20010904/DTD/svg10.dtd">
<svg version="1.0" xmlns="http://www.w3.org/2000/svg"
 width="97.000000pt" height="117.000000pt" viewBox="0 0 97.000000 117.000000"
 preserveAspectRatio="xMidYMid meet">
<metadata>
Created by potrace 1.16, written by Peter Selinger 2001-2019
</metadata>
<g transform="translate(0.000000,117.000000) scale(0.100000,-0.100000)"
fill="#000000" stroke="none">
<path d="M116 1162 c-2 -4 4 -8 14 -8 10 0 16 4 14 8 -3 4 -9 8 -14 8 -5 0
-11 -4 -14 -8z"/>
<path d="M236 1162 c-2 -4 4 -8 14 -8 10 0 16 4 14 8 -3 4 -9 8 -14 8 -5 0
-11 -4 -14 -8z"/>
<path d="M356 1162 c-2 -4 4 -8 14 -8 10 0 16 4 14 8 -3 4 -9 8 -14 8 -5 0
-11 -4 -14 -8z"/>
<path d="M476 1162 c-2 -4 4 -8 14 -8 10 0 16 4 14 8 -3 4 -9 8 -14 8 -5 0
-11 -4 -14 -8z"/>
<path d="M596 1162 c-2 -4 4 -8 14 -8 10 0 16 4 14 8 -3 4 -9 8 -14 8 -5 0
-11 -4 -14 -8z"/>
<path d="M716 1162 c-2 -4 4 -8 14 -8 10 0 16 4 14 8 -3 4 -9 8 -14 8 -5 0
-11 -4 -14 -8z"/>
<path d="M836 1162 c-2 -4 4 -8 14 -8 10 0 16 4 14 8 -3 4 -9 8 -14 8 -5 0
-11 -4 -14 -8z"/>
<path d="M508 1075 c-2 -2 -46 -7 -98 -10 -110 -8 -134 -16 -217 -79 -68 -52
-76 -68 -88 -181 -6 -51 -4 -64 13 -84 17 -21 27 -24 77 -23 77 2 143 25 193
68 33 28 43 45 53 89 10 47 10 61 -4 97 -9 23 -14 44 -11 47 3 3 20 -3 37 -13
18 -11 47 -28 66 -38 36 -19 37 -19 42 -118 6 -112 31 -134 146 -129 37 2 69
0 71 -4 1 -4 2 -28 2 -53 0 -41 -2 -46 -20 -41 -11 3 -20 1 -20 -4 0 -5 7 -9
15 -9 12 0 15 -14 16 -62 4 -178 -11 -306 -40 -332 -29 -26 -142 -58 -183 -51
-35 6 -128 69 -128 86 0 5 -13 28 -30 51 -17 22 -30 47 -30 55 0 20 -34 12
-38 -9 -2 -10 1 -23 7 -30 6 -7 30 -42 53 -77 24 -36 54 -73 68 -83 41 -30
136 -41 204 -23 88 23 113 40 137 93 19 41 22 68 26 227 3 164 9 225 29 309 8
32 10 32 -75 1 -30 -11 -58 -14 -85 -9 -70 11 -76 18 -76 84 0 38 4 60 11 60
7 0 9 11 6 30 -7 34 7 46 69 56 32 5 43 2 58 -15 21 -23 41 -27 51 -10 9 13
-35 60 -48 52 -6 -3 -7 -1 -3 5 14 22 -54 54 -132 63 -43 4 -87 10 -99 13 -11
2 -23 3 -25 1z m145 -49 c28 -2 24 -20 -8 -35 -17 -8 -33 -19 -37 -25 -9 -14
-114 39 -122 61 -6 13 4 14 71 8 43 -4 86 -8 96 -9z m-293 -28 c0 -4 9 -17 20
-28 15 -15 20 -33 20 -78 0 -52 -3 -61 -32 -90 -41 -39 -87 -58 -160 -67 -50
-6 -57 -5 -62 13 -4 10 -2 31 3 46 6 14 10 41 9 60 -1 19 6 46 15 60 18 27 55
51 64 42 3 -3 21 8 40 24 31 27 83 39 83 18z"/>
<path d="M4 1009 c-3 -6 -2 -15 3 -20 5 -5 9 -1 9 11 0 23 -2 24 -12 9z"/>
<path d="M4 889 c-3 -6 -2 -15 3 -20 5 -5 9 -1 9 11 0 23 -2 24 -12 9z"/>
<path d="M4 769 c-3 -6 -2 -15 3 -20 5 -5 9 -1 9 11 0 23 -2 24 -12 9z"/>
<path d="M4 649 c-3 -6 -2 -15 3 -20 5 -5 9 -1 9 11 0 23 -2 24 -12 9z"/>
<path d="M4 529 c-3 -6 -2 -15 3 -20 5 -5 9 -1 9 11 0 23 -2 24 -12 9z"/>
<path d="M4 409 c-3 -6 -2 -15 3 -20 5 -5 9 -1 9 11 0 23 -2 24 -12 9z"/>
<path d="M555 320 c4 -6 11 -8 16 -5 14 9 11 15 -7 15 -8 0 -12 -5 -9 -10z"/>
<path d="M4 289 c-3 -6 -2 -15 3 -20 5 -5 9 -1 9 11 0 23 -2 24 -12 9z"/>
<path d="M4 169 c-3 -6 -2 -15 3 -20 5 -5 9 -1 9 11 0 23 -2 24 -12 9z"/>
<path d="M4 49 c-3 -6 -2 -15 3 -20 5 -5 9 -1 9 11 0 23 -2 24 -12 9z"/>
</g>
</svg>
